tlp,type,name,observable_types,created,modified,valid_from,valid_until,confidence,kill_chain,sources,pattern,first_seen,last_seen
white,indicator,wbgroup022@gmail.com,,2022-05-03T22:25:50.876339Z,2022-05-03T22:25:50.87635Z,2022-01-31T00:00:00Z,2022-07-30T00:00:00Z,100,"actions-on-objectives (lockheed-martin-cyber-kill-chain), impact (mitre-attack)","cert.gov.ua, SEKOIA",[email-addr:value = 'wbgroup022@gmail.com'],,
white,indicator,whiteblackgroup002@gmail.com,,2022-05-03T22:25:50.876396Z,2022-05-03T22:25:50.876404Z,2022-01-31T00:00:00Z,2022-07-30T00:00:00Z,100,"actions-on-objectives (lockheed-martin-cyber-kill-chain), impact (mitre-attack)","cert.gov.ua, SEKOIA",[email-addr:value = 'whiteblackgroup002@gmail.com'],,
white,indicator,b36e5c508efea796731d444c189b413c,,2022-05-03T22:25:50.876413Z,2022-05-03T22:25:50.876422Z,2022-01-31T00:00:00Z,2027-01-30T00:00:00Z,100,"actions-on-objectives (lockheed-martin-cyber-kill-chain), impact (mitre-attack)","cert.gov.ua, SEKOIA",[file:hashes.MD5 = 'b36e5c508efea796731d444c189b413c'],,
white,indicator,http://179.43.176.38:8000/index.php,,2022-05-03T21:51:45.268073Z,2022-05-04T01:42:17.453118Z,2022-01-01T00:00:00Z,2022-06-30T00:00:00Z,100,"command-and-control (lockheed-martin-cyber-kill-chain), delivery (lockheed-martin-cyber-kill-chain), command-and-control (mitre-attack), initial-access (mitre-attack)","SEKOIA, cert.gov.ua",[url:value = 'http://179.43.176.38:8000/index.php'],,
white,indicator,e61518ae9454a563b8f842286bbdb87b,,2022-05-03T21:51:45.268056Z,2022-05-04T01:42:17.45311Z,2022-01-13T00:00:00Z,2027-01-12T00:00:00Z,100,"installation (lockheed-martin-cyber-kill-chain), execution (mitre-attack)","SEKOIA, cert.gov.ua",[file:hashes.MD5 = 'e61518ae9454a563b8f842286bbdb87b'],,
white,indicator,http://179.43.176.42:8000/index.php,,2022-05-03T21:51:45.26809Z,2022-05-04T01:42:17.453126Z,2022-01-01T00:00:00Z,2022-06-30T00:00:00Z,100,"command-and-control (lockheed-martin-cyber-kill-chain), delivery (lockheed-martin-cyber-kill-chain), command-and-control (mitre-attack), initial-access (mitre-attack)","SEKOIA, cert.gov.ua",[url:value = 'http://179.43.176.42:8000/index.php'],,
white,indicator,17fc12902f4769af3a9271eb4e2dacce,,2022-05-03T21:51:45.268038Z,2022-05-04T01:42:17.453173Z,2022-01-13T00:00:00Z,2027-01-12T00:00:00Z,100,"installation (lockheed-martin-cyber-kill-chain), execution (mitre-attack)","SEKOIA, cert.gov.ua",[file:hashes.MD5 = '17fc12902f4769af3a9271eb4e2dacce'],,
white,indicator,3907c7fbd4148395284d8e6e3c1dba5d,,2022-05-03T21:51:45.278251Z,2022-05-04T01:42:17.453189Z,2022-01-13T00:00:00Z,2027-01-30T00:00:00Z,100,"actions-on-objectives (lockheed-martin-cyber-kill-chain), impact (mitre-attack)","SEKOIA, cert.gov.ua",[file:hashes.MD5 = '3907c7fbd4148395284d8e6e3c1dba5d'],,
white,indicator,id.bigmir.space,,2022-05-04T01:48:34.601219Z,2022-05-04T01:48:34.601228Z,2022-02-20T00:00:00Z,2022-08-19T00:00:00Z,100,"delivery (lockheed-martin-cyber-kill-chain), installation (lockheed-martin-cyber-kill-chain)","cert.gov.ua, SEKOIA",[domain-name:value = 'id.bigmir.space'],,
white,indicator,i.ua-passport.space,,2022-05-04T01:48:34.601236Z,2022-05-04T01:48:34.601245Z,2022-02-20T00:00:00Z,2022-08-19T00:00:00Z,100,"delivery (lockheed-martin-cyber-kill-chain), installation (lockheed-martin-cyber-kill-chain)","cert.gov.ua, SEKOIA",[domain-name:value = 'i.ua-passport.space'],,
white,indicator,42397efeaf1d971896cdc91ca024974d,,2022-05-04T01:49:51.635285Z,2022-05-04T01:49:51.635294Z,2022-02-25T00:00:00Z,2027-02-24T00:00:00Z,100,"installation (lockheed-martin-cyber-kill-chain), actions-on-objectives (lockheed-martin-cyber-kill-chain), lateral-movement (mitre-attack), execution (mitre-attack)","cert.gov.ua, SEKOIA",[file:hashes.MD5 = '42397efeaf1d971896cdc91ca024974d'],,
white,indicator,c1f47a14a958e2345ba929afa829c7e7,,2022-05-04T01:49:51.635302Z,2022-05-04T01:49:51.635311Z,2022-02-25T00:00:00Z,2027-02-24T00:00:00Z,100,"installation (lockheed-martin-cyber-kill-chain), actions-on-objectives (lockheed-martin-cyber-kill-chain), lateral-movement (mitre-attack), execution (mitre-attack)","cert.gov.ua, SEKOIA",[file:hashes.MD5 = 'c1f47a14a958e2345ba929afa829c7e7'],,
white,indicator,9297e47fe1b256a8bbcb2b7a20844b2c,,2022-05-04T01:49:51.635319Z,2022-05-04T01:49:51.635328Z,2022-02-25T00:00:00Z,2027-02-24T00:00:00Z,100,"installation (lockheed-martin-cyber-kill-chain), actions-on-objectives (lockheed-martin-cyber-kill-chain), lateral-movement (mitre-attack), execution (mitre-attack)","cert.gov.ua, SEKOIA",[file:hashes.MD5 = '9297e47fe1b256a8bbcb2b7a20844b2c'],,
white,indicator,86926e56e4f6d854161066b5989a350e,,2022-05-04T01:49:51.635336Z,2022-05-04T01:49:51.635345Z,2022-02-25T00:00:00Z,2027-02-24T00:00:00Z,100,"installation (lockheed-martin-cyber-kill-chain), actions-on-objectives (lockheed-martin-cyber-kill-chain), lateral-movement (mitre-attack), execution (mitre-attack)","cert.gov.ua, SEKOIA",[file:hashes.MD5 = '86926e56e4f6d854161066b5989a350e'],,
white,indicator,1b5f0425dd76496e715bfa1aa76d306c,,2022-05-04T01:49:51.635372Z,2022-05-04T01:49:51.63538Z,2022-02-25T00:00:00Z,2027-02-24T00:00:00Z,100,"installation (lockheed-martin-cyber-kill-chain), actions-on-objectives (lockheed-martin-cyber-kill-chain), lateral-movement (mitre-attack), execution (mitre-attack)","cert.gov.ua, SEKOIA",[file:hashes.MD5 = '1b5f0425dd76496e715bfa1aa76d306c'],,
white,indicator,3dcec8f6ba15e801b63b7c21a6b966fb,,2022-05-04T01:49:51.635389Z,2022-05-04T01:49:51.635398Z,2022-02-25T00:00:00Z,2027-02-24T00:00:00Z,100,"installation (lockheed-martin-cyber-kill-chain), actions-on-objectives (lockheed-martin-cyber-kill-chain), lateral-movement (mitre-attack), execution (mitre-attack)","cert.gov.ua, SEKOIA",[file:hashes.MD5 = '3dcec8f6ba15e801b63b7c21a6b966fb'],,
white,indicator,b63a80660f94353112ba7071ea16ebbeb9de7cc14c278d1c4dee40bc231cb49c,,2022-05-04T03:05:30.982976Z,2022-05-04T03:05:30.982984Z,2022-03-01T00:00:00Z,2027-02-28T00:00:00Z,100,"installation (lockheed-martin-cyber-kill-chain), execution (mitre-attack), persistence (mitre-attack)","cert.gov.ua, SEKOIA",[file:hashes.'SHA-256' = 'b63a80660f94353112ba7071ea16ebbeb9de7cc14c278d1c4dee40bc231cb49c'],,
white,indicator,e97f1d6ec1aa3f7c7973d57074d1d623833f0e9b1c1e53f81af92c057a1fdd72,,2022-05-04T03:05:30.982992Z,2022-05-04T03:05:30.983001Z,2022-03-01T00:00:00Z,2027-02-28T00:00:00Z,100,"installation (lockheed-martin-cyber-kill-chain), execution (mitre-attack), persistence (mitre-attack)","cert.gov.ua, SEKOIA",[file:hashes.'SHA-256' = 'e97f1d6ec1aa3f7c7973d57074d1d623833f0e9b1c1e53f81af92c057a1fdd72'],,
white,indicator,7f0511b09b1ab3a64c8827dd8af017acbf7d2688db31a5d98fea8a5029a89d56,,2022-05-04T03:05:30.983009Z,2022-05-04T03:05:30.983018Z,2022-03-01T00:00:00Z,2027-02-28T00:00:00Z,100,"installation (lockheed-martin-cyber-kill-chain), execution (mitre-attack), persistence (mitre-attack)","cert.gov.ua, SEKOIA",[file:hashes.'SHA-256' = '7f0511b09b1ab3a64c8827dd8af017acbf7d2688db31a5d98fea8a5029a89d56'],,
white,indicator,c76fb28b6910bb0714fab5b84363ebf2082fd59ddb0bb95166635583554d7ab4,,2022-05-04T03:05:30.983026Z,2022-05-04T03:05:30.983034Z,2022-03-01T00:00:00Z,2027-02-28T00:00:00Z,100,"installation (lockheed-martin-cyber-kill-chain), execution (mitre-attack), persistence (mitre-attack)","cert.gov.ua, SEKOIA",[file:hashes.'SHA-256' = 'c76fb28b6910bb0714fab5b84363ebf2082fd59ddb0bb95166635583554d7ab4'],,
white,indicator,dovidka.chm,,2022-05-04T03:05:30.983059Z,2022-05-04T03:05:30.983067Z,2022-03-01T00:00:00Z,2022-08-28T00:00:00Z,100,"installation (lockheed-martin-cyber-kill-chain), persistence (mitre-attack), execution (mitre-attack)","cert.gov.ua, SEKOIA",[filename:value = 'dovidka.chm'],,
white,indicator,Windows Prefetch.lnk,,2022-05-04T03:05:30.983075Z,2022-05-04T03:05:30.983083Z,2022-03-01T00:00:00Z,2022-08-28T00:00:00Z,100,"installation (lockheed-martin-cyber-kill-chain), persistence (mitre-attack), execution (mitre-attack)","cert.gov.ua, SEKOIA",[filename:value = 'Windows Prefetch.lnk'],,
white,indicator,9ad4a2dfd4cb49ef55f2acd320659b83,,2022-05-04T03:56:07.467215Z,2022-05-04T03:56:07.467224Z,2022-03-06T00:00:00Z,2027-03-05T00:00:00Z,70,"actions-on-objectives (lockheed-martin-cyber-kill-chain), command-and-control (lockheed-martin-cyber-kill-chain), installation (lockheed-martin-cyber-kill-chain)","cert.gov.ua, SEKOIA",[file:hashes.MD5 = '9ad4a2dfd4cb49ef55f2acd320659b83'],,
white,indicator,ca9290709843584aecbd6564fb978bd6,,2022-05-04T03:56:07.467233Z,2022-05-04T03:56:07.467243Z,2022-03-06T00:00:00Z,2027-03-05T00:00:00Z,70,"actions-on-objectives (lockheed-martin-cyber-kill-chain), command-and-control (lockheed-martin-cyber-kill-chain), installation (lockheed-martin-cyber-kill-chain)","cert.gov.ua, SEKOIA",[file:hashes.MD5 = 'ca9290709843584aecbd6564fb978bd6'],,
white,indicator,cf204319f7397a6a31ecf76c9531a549,,2022-05-04T03:56:07.467251Z,2022-05-04T03:56:07.46726Z,2022-03-06T00:00:00Z,2027-03-05T00:00:00Z,70,"actions-on-objectives (lockheed-martin-cyber-kill-chain), command-and-control (lockheed-martin-cyber-kill-chain), installation (lockheed-martin-cyber-kill-chain)","cert.gov.ua, SEKOIA",[file:hashes.MD5 = 'cf204319f7397a6a31ecf76c9531a549'],,
white,indicator,b8b7a10dcc0dad157191620b5d4e5312,,2022-05-04T03:56:07.467268Z,2022-05-04T03:56:07.467277Z,2022-03-06T00:00:00Z,2027-03-05T00:00:00Z,70,"actions-on-objectives (lockheed-martin-cyber-kill-chain), command-and-control (lockheed-martin-cyber-kill-chain), installation (lockheed-martin-cyber-kill-chain)","cert.gov.ua, SEKOIA",[file:hashes.MD5 = 'b8b7a10dcc0dad157191620b5d4e5312'],,
white,indicator,e9cb478188108533e821c71dd3dd5483ae1c27f677c7576c5046493321006bac,,2022-05-04T03:56:07.467285Z,2022-05-04T03:56:07.467294Z,2022-03-06T00:00:00Z,2027-03-05T00:00:00Z,70,"actions-on-objectives (lockheed-martin-cyber-kill-chain), command-and-control (lockheed-martin-cyber-kill-chain), installation (lockheed-martin-cyber-kill-chain)","cert.gov.ua, SEKOIA",[file:hashes.MD5 = '2fdf9f3a25e039a41e743e19550d4040' OR file:hashes.'SHA-1' = 'f4c397fc4f410362b2995bcd5c0bbd3199fefdf2' OR file:hashes.'SHA-256' = 'e9cb478188108533e821c71dd3dd5483ae1c27f677c7576c5046493321006bac'],,
white,indicator,https://cdn.discordapp.com/attachments/947916997713358890/949948174636830761/one.exe,,2022-05-04T03:56:07.467302Z,2022-05-04T03:56:07.467312Z,2022-03-06T00:00:00Z,2022-09-02T00:00:00Z,70,"delivery (lockheed-martin-cyber-kill-chain), command-and-control (lockheed-martin-cyber-kill-chain)","cert.gov.ua, SEKOIA",[url:value = 'https://cdn.discordapp.com/attachments/947916997713358890/949948174636830761/one.exe'],,
white,indicator,http://45.84.0.116:443/p,,2022-05-04T03:56:07.46732Z,2022-05-04T03:56:07.467329Z,2022-03-06T00:00:00Z,2022-09-02T00:00:00Z,70,"delivery (lockheed-martin-cyber-kill-chain), command-and-control (lockheed-martin-cyber-kill-chain)","cert.gov.ua, SEKOIA",[url:value = 'http://45.84.0.116:443/p'],,
white,indicator,http://45.84.0.116:443/i,,2022-05-04T03:56:07.467337Z,2022-05-04T03:56:07.467346Z,2022-03-06T00:00:00Z,2022-09-02T00:00:00Z,70,"delivery (lockheed-martin-cyber-kill-chain), command-and-control (lockheed-martin-cyber-kill-chain)","cert.gov.ua, SEKOIA",[url:value = 'http://45.84.0.116:443/i'],,
white,indicator,https://cdn.discordapp.com/attachments/947916997713358890/949978571680673802/cesdf.exe,,2022-05-04T03:56:07.467354Z,2022-05-04T03:56:07.467362Z,2022-03-06T00:00:00Z,2022-09-02T00:00:00Z,70,"delivery (lockheed-martin-cyber-kill-chain), command-and-control (lockheed-martin-cyber-kill-chain)","cert.gov.ua, SEKOIA",[url:value = 'https://cdn.discordapp.com/attachments/947916997713358890/949978571680673802/cesdf.exe'],,
white,indicator,https://nirsoft.me/s/2MYmbwpSJLZRAtXRgNTAUjJSH6SSoicLPIrQl/field-keywords/,,2022-05-04T03:56:07.467371Z,2022-05-04T03:56:07.46738Z,2022-03-06T00:00:00Z,2022-09-02T00:00:00Z,70,"delivery (lockheed-martin-cyber-kill-chain), command-and-control (lockheed-martin-cyber-kill-chain)","cert.gov.ua, SEKOIA",[url:value = 'https://nirsoft.me/s/2MYmbwpSJLZRAtXRgNTAUjJSH6SSoicLPIrQl/field-keywords/'],,
white,indicator,forkscenter.fr,,2022-05-04T03:56:07.467388Z,2022-05-04T03:56:07.467396Z,2022-03-06T00:00:00Z,2022-09-02T00:00:00Z,70,"delivery (lockheed-martin-cyber-kill-chain), command-and-control (lockheed-martin-cyber-kill-chain)","cert.gov.ua, SEKOIA",[domain-name:value = 'forkscenter.fr'],,
white,indicator,https://cdn.discordapp.com/attachments/947916997713358890/949948174838165524/dropper.exe,,2022-05-04T03:56:07.467405Z,2022-05-04T03:56:07.467413Z,2022-03-06T00:00:00Z,2022-09-02T00:00:00Z,70,"delivery (lockheed-martin-cyber-kill-chain), command-and-control (lockheed-martin-cyber-kill-chain)","cert.gov.ua, SEKOIA",[url:value = 'https://cdn.discordapp.com/attachments/947916997713358890/949948174838165524/dropper.exe'],,
white,indicator,https://forkscenter.fr/BitdefenderWindowsUpdatePackage.exe,,2022-05-04T03:56:07.467422Z,2022-05-04T03:56:07.46743Z,2022-03-06T00:00:00Z,2022-09-02T00:00:00Z,70,"delivery (lockheed-martin-cyber-kill-chain), command-and-control (lockheed-martin-cyber-kill-chain)","cert.gov.ua, SEKOIA",[url:value = 'https://forkscenter.fr/BitdefenderWindowsUpdatePackage.exe'],,
white,indicator,http://45.84.0.116:443/m,,2022-05-04T03:56:07.467438Z,2022-05-04T03:56:07.467447Z,2022-03-06T00:00:00Z,2022-09-02T00:00:00Z,70,"delivery (lockheed-martin-cyber-kill-chain), command-and-control (lockheed-martin-cyber-kill-chain)","cert.gov.ua, SEKOIA",[url:value = 'http://45.84.0.116:443/m'],,
white,indicator,https://nirsoft.me/nEDFzTtoCbUfp9BtSZlaq6ql8v6yYb/avp/amznussraps/,,2022-05-04T03:56:07.467455Z,2022-05-04T03:56:07.467463Z,2022-03-06T00:00:00Z,2022-09-02T00:00:00Z,70,"delivery (lockheed-martin-cyber-kill-chain), command-and-control (lockheed-martin-cyber-kill-chain)","cert.gov.ua, SEKOIA",[url:value = 'https://nirsoft.me/nEDFzTtoCbUfp9BtSZlaq6ql8v6yYb/avp/amznussraps/'],,
white,indicator,https://forkscenter.fr/Sdghrt_umrj6/wisw.exe,,2022-05-04T03:56:07.467472Z,2022-05-04T03:56:07.46748Z,2022-03-06T00:00:00Z,2022-09-02T00:00:00Z,70,"delivery (lockheed-martin-cyber-kill-chain), command-and-control (lockheed-martin-cyber-kill-chain)","cert.gov.ua, SEKOIA",[url:value = 'https://forkscenter.fr/Sdghrt_umrj6/wisw.exe'],,
white,indicator,nirsoft.me,,2022-05-04T03:56:07.467488Z,2022-05-04T03:56:07.467498Z,2022-03-06T00:00:00Z,2022-09-02T00:00:00Z,70,"delivery (lockheed-martin-cyber-kill-chain), command-and-control (lockheed-martin-cyber-kill-chain)","cert.gov.ua, SEKOIA",[domain-name:value = 'nirsoft.me'],,
white,indicator,https://eoy7zvsvn6xfcmy.m.pipedream.net,,2022-05-04T04:27:23.136159Z,2022-05-04T04:27:23.136168Z,2022-03-16T00:00:00Z,2022-09-12T00:00:00Z,70,"delivery (lockheed-martin-cyber-kill-chain), command-and-control (lockheed-martin-cyber-kill-chain), initial-access (mitre-attack), command-and-control (mitre-attack)","cert.gov.ua, SEKOIA",[url:value = 'https://eoy7zvsvn6xfcmy.m.pipedream.net'],,
white,indicator,eo9p1d2bfmioiot.m.pipedream.net,,2022-05-04T04:27:23.136176Z,2022-05-04T04:27:23.136185Z,2022-03-16T00:00:00Z,2022-09-12T00:00:00Z,70,"delivery (lockheed-martin-cyber-kill-chain), command-and-control (lockheed-martin-cyber-kill-chain), initial-access (mitre-attack), command-and-control (mitre-attack)","cert.gov.ua, SEKOIA",[domain-name:value = 'eo9p1d2bfmioiot.m.pipedream.net'],,
white,indicator,https://eoiw8lhjwuc3sh2.m.pipedream.net,,2022-05-04T04:27:23.136193Z,2022-05-04T04:27:23.136202Z,2022-03-16T00:00:00Z,2022-09-12T00:00:00Z,70,"delivery (lockheed-martin-cyber-kill-chain), command-and-control (lockheed-martin-cyber-kill-chain), initial-access (mitre-attack), command-and-control (mitre-attack)","cert.gov.ua, SEKOIA",[url:value = 'https://eoiw8lhjwuc3sh2.m.pipedream.net'],,
white,indicator,eoiw8lhjwuc3sh2.m.pipedream.net,,2022-05-04T04:27:23.136211Z,2022-05-04T04:27:23.136219Z,2022-03-16T00:00:00Z,2022-09-12T00:00:00Z,70,"delivery (lockheed-martin-cyber-kill-chain), command-and-control (lockheed-martin-cyber-kill-chain), initial-access (mitre-attack), command-and-control (mitre-attack)","cert.gov.ua, SEKOIA",[domain-name:value = 'eoiw8lhjwuc3sh2.m.pipedream.net'],,
white,indicator,https://eo9p1d2bfmioiot.m.pipedream.net,,2022-05-04T04:27:23.136228Z,2022-05-04T04:27:23.136237Z,2022-03-16T00:00:00Z,2022-09-12T00:00:00Z,70,"delivery (lockheed-martin-cyber-kill-chain), command-and-control (lockheed-martin-cyber-kill-chain), initial-access (mitre-attack), command-and-control (mitre-attack)","cert.gov.ua, SEKOIA",[url:value = 'https://eo9p1d2bfmioiot.m.pipedream.net'],,
white,indicator,panelunregistertle-348.frge.io,,2022-05-04T04:27:23.136245Z,2022-05-04T04:27:23.136254Z,2022-03-16T00:00:00Z,2022-09-12T00:00:00Z,70,"delivery (lockheed-martin-cyber-kill-chain), command-and-control (lockheed-martin-cyber-kill-chain), initial-access (mitre-attack), command-and-control (mitre-attack)","cert.gov.ua, SEKOIA",[domain-name:value = 'panelunregistertle-348.frge.io'],,
white,indicator,https://panelunregistertle-348.frge.io/,,2022-05-04T04:27:23.136262Z,2022-05-04T04:27:23.136271Z,2022-03-16T00:00:00Z,2022-09-12T00:00:00Z,70,"delivery (lockheed-martin-cyber-kill-chain), command-and-control (lockheed-martin-cyber-kill-chain), initial-access (mitre-attack), command-and-control (mitre-attack)","cert.gov.ua, SEKOIA",[url:value = 'https://panelunregistertle-348.frge.io/'],,
white,indicator,https://eo9p1d2bfmioiot.m.pipedream.net/?usr=,,2022-05-04T04:27:23.136279Z,2022-05-04T04:27:23.136288Z,2022-03-16T00:00:00Z,2022-09-12T00:00:00Z,70,"delivery (lockheed-martin-cyber-kill-chain), command-and-control (lockheed-martin-cyber-kill-chain), initial-access (mitre-attack), command-and-control (mitre-attack)","cert.gov.ua, SEKOIA",[url:value = 'https://eo9p1d2bfmioiot.m.pipedream.net/?usr='],,
white,indicator,https://panelunregistertle-348.frge.io/?usr=,,2022-05-04T04:27:23.136296Z,2022-05-04T04:27:23.136305Z,2022-03-16T00:00:00Z,2022-09-12T00:00:00Z,70,"delivery (lockheed-martin-cyber-kill-chain), command-and-control (lockheed-martin-cyber-kill-chain), initial-access (mitre-attack), command-and-control (mitre-attack)","cert.gov.ua, SEKOIA",[url:value = 'https://panelunregistertle-348.frge.io/?usr='],,
white,indicator,9ea3aaaeb15a074cd617ee1dfdda2c26,,2022-05-04T03:56:07.472586Z,2022-05-04T04:27:24.273744Z,2022-03-06T00:00:00Z,2027-03-05T00:00:00Z,70,"actions-on-objectives (lockheed-martin-cyber-kill-chain), command-and-control (lockheed-martin-cyber-kill-chain)","SEKOIA, cert.gov.ua",[file:hashes.MD5 = '9ea3aaaeb15a074cd617ee1dfdda2c26'],,
white,indicator,4f11abdb96be36e3806bada5b8b2b8f8,,2022-05-04T03:56:07.472824Z,2022-05-04T04:27:24.273754Z,2022-03-06T00:00:00Z,2027-03-05T00:00:00Z,100,"actions-on-objectives (lockheed-martin-cyber-kill-chain), command-and-control (lockheed-martin-cyber-kill-chain)","SEKOIA, cert.gov.ua",[file:hashes.MD5 = '4f11abdb96be36e3806bada5b8b2b8f8'],,
white,indicator,15c525b74b7251cfa1f7c471975f3f95,,2022-05-04T03:56:07.472841Z,2022-05-04T04:27:24.273763Z,2022-03-06T00:00:00Z,2027-03-05T00:00:00Z,70,"actions-on-objectives (lockheed-martin-cyber-kill-chain), command-and-control (lockheed-martin-cyber-kill-chain), installation (lockheed-martin-cyber-kill-chain)","SEKOIA, cert.gov.ua",[file:hashes.MD5 = '15c525b74b7251cfa1f7c471975f3f95'],,
white,indicator,c8bf238641621212901517570e96fae7,,2022-05-04T03:56:07.472867Z,2022-05-04T04:27:24.273771Z,2022-03-06T00:00:00Z,2027-03-05T00:00:00Z,70,"actions-on-objectives (lockheed-martin-cyber-kill-chain), command-and-control (lockheed-martin-cyber-kill-chain), installation (lockheed-martin-cyber-kill-chain)","SEKOIA, cert.gov.ua",[file:hashes.MD5 = 'c8bf238641621212901517570e96fae7'],,
white,indicator,[file:hashes.MD5 = 'aa5e8268e741346c76ebfd1f27941a14' OR file:hashes.'SHA-1' = 'a6772c80f51d3805d5704f02a80e08501b133fac' OR file:hashes.'SHA-256' = '2f92d416f73472db1ebe880b3bec677bcb1d96d6ad62974da00b4be5f6d61f5b' OR file:hashes.'SHA-512' = '38193a1be706302105c2b93235d1eb4dce3a0ebcfb173a7f31c071be14f40ff7d94f7f7a8b58fcd7e58ef8e6f6a475a01390e4912d8961fa1e23f784b6c96cc1'],,2022-05-04T03:56:07.472771Z,2022-05-04T05:28:52.985323Z,2020-01-01T00:00:00Z,2025-03-22T00:00:00Z,100,"actions-on-objectives (lockheed-martin-cyber-kill-chain), command-and-control (lockheed-martin-cyber-kill-chain)","tria.ge, SEKOIA, cert.gov.ua",[file:hashes.MD5 = 'aa5e8268e741346c76ebfd1f27941a14' OR file:hashes.'SHA-1' = 'a6772c80f51d3805d5704f02a80e08501b133fac' OR file:hashes.'SHA-256' = '2f92d416f73472db1ebe880b3bec677bcb1d96d6ad62974da00b4be5f6d61f5b' OR file:hashes.'SHA-512' = '38193a1be706302105c2b93235d1eb4dce3a0ebcfb173a7f31c071be14f40ff7d94f7f7a8b58fcd7e58ef8e6f6a475a01390e4912d8961fa1e23f784b6c96cc1'],,
white,indicator,http://45.95.11.34:3000/test,,2022-05-04T05:32:56.899846Z,2022-05-04T05:32:56.899854Z,2022-02-01T00:00:00Z,2022-07-31T00:00:00Z,100,"command-and-control (lockheed-martin-cyber-kill-chain), command-and-control (mitre-attack)","cert.gov.ua, SEKOIA",[url:value = 'http://45.95.11.34:3000/test'],,
white,indicator,http://45.95.11.34:88/get.php?a=We4Qu6,,2022-05-04T05:32:56.899863Z,2022-05-04T05:32:56.899872Z,2022-02-01T00:00:00Z,2022-07-31T00:00:00Z,100,"command-and-control (lockheed-martin-cyber-kill-chain), command-and-control (mitre-attack)","cert.gov.ua, SEKOIA",[url:value = 'http://45.95.11.34:88/get.php?a=We4Qu6'],,
white,indicator,6b721ab9f73718c393aca2b9ad06f45b09dbfb23d105ca5872d8df7515ae14c4,,2022-05-04T05:32:56.89988Z,2022-05-04T05:32:56.899889Z,2022-02-01T00:00:00Z,2027-01-31T00:00:00Z,100,"installation (lockheed-martin-cyber-kill-chain), execution (mitre-attack)","cert.gov.ua, SEKOIA",[file:hashes.'SHA-256' = '6b721ab9f73718c393aca2b9ad06f45b09dbfb23d105ca5872d8df7515ae14c4'],,
white,indicator,72ed59f0d293ceede46bd69a09322f30,,2022-05-04T05:32:56.899897Z,2022-05-04T05:32:56.899906Z,2022-02-01T00:00:00Z,2027-01-31T00:00:00Z,100,"installation (lockheed-martin-cyber-kill-chain), execution (mitre-attack)","cert.gov.ua, SEKOIA",[file:hashes.MD5 = '72ed59f0d293ceede46bd69a09322f30'],,
white,indicator,090997b4691f1a155187a181dbf54aec034eafc7b9344016867fe50da15829df,,2022-05-04T05:32:56.899914Z,2022-05-04T05:32:56.899922Z,2022-02-01T00:00:00Z,2027-01-31T00:00:00Z,100,"installation (lockheed-martin-cyber-kill-chain), execution (mitre-attack)","cert.gov.ua, SEKOIA",[file:hashes.'SHA-256' = '090997b4691f1a155187a181dbf54aec034eafc7b9344016867fe50da15829df'],,
white,indicator,cd1a425e1ac6bc029fb4418523e43e88,,2022-05-04T05:32:56.899931Z,2022-05-04T05:32:56.899939Z,2022-02-01T00:00:00Z,2027-01-31T00:00:00Z,100,"installation (lockheed-martin-cyber-kill-chain), execution (mitre-attack)","cert.gov.ua, SEKOIA",[file:hashes.MD5 = 'cd1a425e1ac6bc029fb4418523e43e88'],,
white,indicator,4df873ea077bdbfe5389d30b5b0d0ad4a3fa663af4a4109859b61eb7f6099fc8,,2022-05-04T05:32:56.899947Z,2022-05-04T05:32:56.899956Z,2022-02-01T00:00:00Z,2027-01-31T00:00:00Z,100,"installation (lockheed-martin-cyber-kill-chain), execution (mitre-attack)","cert.gov.ua, SEKOIA",[file:hashes.'SHA-256' = '4df873ea077bdbfe5389d30b5b0d0ad4a3fa663af4a4109859b61eb7f6099fc8'],,
white,indicator,5fb6202b8273a6a4cda73cee3f88ce1a,,2022-05-04T05:32:56.899964Z,2022-05-04T05:32:56.899973Z,2022-02-01T00:00:00Z,2027-01-31T00:00:00Z,100,"installation (lockheed-martin-cyber-kill-chain), execution (mitre-attack)","cert.gov.ua, SEKOIA",[file:hashes.MD5 = '5fb6202b8273a6a4cda73cee3f88ce1a'],,
white,indicator,dfb5a03f56769e3d1195bdfe6bb62070,,2022-05-04T05:32:56.899981Z,2022-05-04T05:32:56.89999Z,2022-02-01T00:00:00Z,2027-01-31T00:00:00Z,100,"installation (lockheed-martin-cyber-kill-chain), execution (mitre-attack)","cert.gov.ua, SEKOIA",[file:hashes.MD5 = 'dfb5a03f56769e3d1195bdfe6bb62070'],,
white,indicator,5e06d688ac955b351c3ced0083dc7e372e447458e6604fd82ac118a6ac8e553c,,2022-05-04T05:32:56.899998Z,2022-05-04T05:32:56.900402Z,2022-02-01T00:00:00Z,2027-01-31T00:00:00Z,100,"installation (lockheed-martin-cyber-kill-chain), execution (mitre-attack)","cert.gov.ua, SEKOIA",[file:hashes.'SHA-256' = '5e06d688ac955b351c3ced0083dc7e372e447458e6604fd82ac118a6ac8e553c'],,
white,indicator,fd72080eca622fa3d9573b43c86a770f7467f3354225118ab2634383bd7b42eb,,2022-05-04T05:32:56.900419Z,2022-05-04T05:32:56.900428Z,2022-02-01T00:00:00Z,2027-01-31T00:00:00Z,100,"installation (lockheed-martin-cyber-kill-chain), execution (mitre-attack)","cert.gov.ua, SEKOIA",[file:hashes.'SHA-256' = 'fd72080eca622fa3d9573b43c86a770f7467f3354225118ab2634383bd7b42eb'],,
white,indicator,03f12262a2846ebbce989aca5cec74a7,,2022-05-04T05:32:56.900437Z,2022-05-04T05:32:56.900446Z,2022-02-01T00:00:00Z,2027-01-31T00:00:00Z,100,"installation (lockheed-martin-cyber-kill-chain), execution (mitre-attack)","cert.gov.ua, SEKOIA",[file:hashes.MD5 = '03f12262a2846ebbce989aca5cec74a7'],,
white,indicator,http://getmod.host/ThlAHy3S,,2022-05-04T05:57:16.110705Z,2022-05-04T05:57:16.110713Z,2022-03-09T00:00:00Z,2022-09-05T00:00:00Z,100,"command-and-control (lockheed-martin-cyber-kill-chain), command-and-control (mitre-attack)","cert.gov.ua, SEKOIA",[url:value = 'http://getmod.host/ThlAHy3S'],,
white,indicator,http://getmod.host/DSGb3Y3X,,2022-05-04T05:57:16.110721Z,2022-05-04T05:57:16.110729Z,2022-03-09T00:00:00Z,2022-09-05T00:00:00Z,100,"command-and-control (lockheed-martin-cyber-kill-chain), command-and-control (mitre-attack)","cert.gov.ua, SEKOIA",[url:value = 'http://getmod.host/DSGb3Y3X'],,
white,indicator,http://getmod.host/OcthdaLm,,2022-05-04T05:57:16.110738Z,2022-05-04T05:57:16.110747Z,2022-03-09T00:00:00Z,2022-09-05T00:00:00Z,100,"command-and-control (lockheed-martin-cyber-kill-chain), command-and-control (mitre-attack)","cert.gov.ua, SEKOIA",[url:value = 'http://getmod.host/OcthdaLm'],,
white,indicator,http://176.119.2.212/web/t/data.out,,2022-05-04T05:57:16.110755Z,2022-05-04T05:57:16.110763Z,2022-03-09T00:00:00Z,2022-09-05T00:00:00Z,100,"command-and-control (lockheed-martin-cyber-kill-chain), command-and-control (mitre-attack)","cert.gov.ua, SEKOIA",[url:value = 'http://176.119.2.212/web/t/data.out'],,
white,indicator,baf502b4b823b6806cc91e2c1dd07613,,2022-05-04T05:57:16.110771Z,2022-05-04T05:57:16.110779Z,2022-03-09T00:00:00Z,2027-03-08T00:00:00Z,100,"installation (lockheed-martin-cyber-kill-chain), execution (mitre-attack)","cert.gov.ua, SEKOIA",[file:hashes.MD5 = 'baf502b4b823b6806cc91e2c1dd07613'],,
white,indicator,1c2c41a5a5f89eccafea6e34183d5db9,,2022-05-04T05:57:16.110788Z,2022-05-04T05:57:16.110796Z,2022-03-09T00:00:00Z,2027-03-08T00:00:00Z,100,"installation (lockheed-martin-cyber-kill-chain), execution (mitre-attack)","cert.gov.ua, SEKOIA",[file:hashes.MD5 = '1c2c41a5a5f89eccafea6e34183d5db9'],,
white,indicator,00a54a6496734d87dab6685aa90588f8,,2022-05-04T05:57:16.110804Z,2022-05-04T05:57:16.110813Z,2022-03-09T00:00:00Z,2027-03-08T00:00:00Z,100,"installation (lockheed-martin-cyber-kill-chain), execution (mitre-attack)","cert.gov.ua, SEKOIA",[file:hashes.MD5 = '00a54a6496734d87dab6685aa90588f8'],,
white,indicator,3ed8263abe009c19c4af8706d52060f8,,2022-05-04T05:57:16.110822Z,2022-05-04T05:57:16.11083Z,2022-03-09T00:00:00Z,2027-03-08T00:00:00Z,100,"installation (lockheed-martin-cyber-kill-chain), execution (mitre-attack)","cert.gov.ua, SEKOIA",[file:hashes.MD5 = '3ed8263abe009c19c4af8706d52060f8'],,
white,indicator,67274bdd5c9537affbd51567f4ba8d5f,,2022-05-04T05:57:16.110839Z,2022-05-04T05:57:16.110847Z,2022-03-09T00:00:00Z,2027-03-08T00:00:00Z,100,"installation (lockheed-martin-cyber-kill-chain), execution (mitre-attack)","cert.gov.ua, SEKOIA",[file:hashes.MD5 = '67274bdd5c9537affbd51567f4ba8d5f'],,
white,indicator,75e1ce42e0892ed04a43e3b68afdbc07,,2022-05-04T05:57:16.110856Z,2022-05-04T05:57:16.110864Z,2022-03-09T00:00:00Z,2027-03-08T00:00:00Z,100,"installation (lockheed-martin-cyber-kill-chain), execution (mitre-attack)","cert.gov.ua, SEKOIA",[file:hashes.MD5 = '75e1ce42e0892ed04a43e3b68afdbc07'],,
white,indicator,32343f2a6b8ac9b6587e2e07989362ab,,2022-05-04T05:57:16.110872Z,2022-05-04T05:57:16.110881Z,2022-03-09T00:00:00Z,2027-03-08T00:00:00Z,100,"installation (lockheed-martin-cyber-kill-chain), execution (mitre-attack)","cert.gov.ua, SEKOIA",[file:hashes.MD5 = '32343f2a6b8ac9b6587e2e07989362ab'],,
white,indicator,d0632ef34514bbb0f675c59e6ecca717,,2022-05-04T05:57:16.110889Z,2022-05-04T05:57:16.110898Z,2022-03-09T00:00:00Z,2027-03-08T00:00:00Z,100,"installation (lockheed-martin-cyber-kill-chain), execution (mitre-attack)","cert.gov.ua, SEKOIA",[file:hashes.MD5 = 'd0632ef34514bbb0f675c59e6ecca717'],,
white,indicator,d34dbbd28775b2c3a0b55d86d418f293,,2022-05-04T05:57:16.110906Z,2022-05-04T05:57:16.110915Z,2022-03-09T00:00:00Z,2027-03-08T00:00:00Z,100,"installation (lockheed-martin-cyber-kill-chain), execution (mitre-attack)","cert.gov.ua, SEKOIA",[file:hashes.MD5 = 'd34dbbd28775b2c3a0b55d86d418f293'],,
white,indicator,5db4313b8dbb9204f8f98f2c129fd734,,2022-05-04T05:57:16.110923Z,2022-05-04T05:57:16.110931Z,2022-03-09T00:00:00Z,2027-03-08T00:00:00Z,100,"installation (lockheed-martin-cyber-kill-chain), execution (mitre-attack)","cert.gov.ua, SEKOIA",[file:hashes.MD5 = '5db4313b8dbb9204f8f98f2c129fd734'],,
white,indicator,e08d7c4daa45beca5079870251e50236,,2022-05-04T05:57:16.11094Z,2022-05-04T05:57:16.110948Z,2022-03-09T00:00:00Z,2027-03-08T00:00:00Z,100,"installation (lockheed-martin-cyber-kill-chain), execution (mitre-attack)","cert.gov.ua, SEKOIA",[file:hashes.MD5 = 'e08d7c4daa45beca5079870251e50236'],,
white,indicator,ecc7bb2e4672b958bd82fe9ec9cfab14,,2022-05-04T05:57:16.110957Z,2022-05-04T05:57:16.110965Z,2022-03-09T00:00:00Z,2027-03-08T00:00:00Z,100,"installation (lockheed-martin-cyber-kill-chain), execution (mitre-attack)","cert.gov.ua, SEKOIA",[file:hashes.MD5 = 'ecc7bb2e4672b958bd82fe9ec9cfab14'],,
white,indicator,993415425b61183dd3f900d9b81ac57f,,2022-05-04T05:57:16.110973Z,2022-05-04T05:57:16.110982Z,2022-03-09T00:00:00Z,2027-03-08T00:00:00Z,100,"installation (lockheed-martin-cyber-kill-chain), execution (mitre-attack)","cert.gov.ua, SEKOIA",[file:hashes.MD5 = '993415425b61183dd3f900d9b81ac57f'],,
white,indicator,f0197bbb56465b5e2f1f17876c0da5ba,,2022-05-04T05:57:16.11099Z,2022-05-04T05:57:16.110998Z,2022-03-09T00:00:00Z,2027-03-08T00:00:00Z,100,"installation (lockheed-martin-cyber-kill-chain), execution (mitre-attack)","cert.gov.ua, SEKOIA",[file:hashes.MD5 = 'f0197bbb56465b5e2f1f17876c0da5ba'],,
white,indicator,adebdc32ef35209fb142d44050928083,,2022-05-04T05:57:16.111006Z,2022-05-04T05:57:16.111015Z,2022-03-09T00:00:00Z,2027-03-08T00:00:00Z,100,"installation (lockheed-martin-cyber-kill-chain), execution (mitre-attack)","cert.gov.ua, SEKOIA",[file:hashes.MD5 = 'adebdc32ef35209fb142d44050928083'],,
white,indicator,stormpredictor.host,,2022-05-04T05:57:16.111023Z,2022-05-04T05:57:16.111031Z,2022-03-09T00:00:00Z,2022-09-05T00:00:00Z,100,"command-and-control (lockheed-martin-cyber-kill-chain), command-and-control (mitre-attack)","cert.gov.ua, SEKOIA",[domain-name:value = 'stormpredictor.host'],,
white,indicator,netbin.host,,2022-05-04T05:57:16.11104Z,2022-05-04T05:57:16.111048Z,2022-03-09T00:00:00Z,2022-09-05T00:00:00Z,100,"command-and-control (lockheed-martin-cyber-kill-chain), command-and-control (mitre-attack)","cert.gov.ua, SEKOIA",[domain-name:value = 'netbin.host'],,
white,indicator,syncapp.host,,2022-05-04T05:57:16.111056Z,2022-05-04T05:57:16.111065Z,2022-03-09T00:00:00Z,2022-09-05T00:00:00Z,100,"command-and-control (lockheed-martin-cyber-kill-chain), command-and-control (mitre-attack)","cert.gov.ua, SEKOIA",[domain-name:value = 'syncapp.host'],,
white,indicator,getmod.host,,2022-05-04T05:57:16.111073Z,2022-05-04T05:57:16.111081Z,2022-03-09T00:00:00Z,2022-09-05T00:00:00Z,100,"command-and-control (lockheed-martin-cyber-kill-chain), command-and-control (mitre-attack)","cert.gov.ua, SEKOIA",[domain-name:value = 'getmod.host'],,
white,indicator,meteolink.host,,2022-05-04T05:57:16.111106Z,2022-05-04T05:57:16.111114Z,2022-03-09T00:00:00Z,2022-09-05T00:00:00Z,100,"command-and-control (lockheed-martin-cyber-kill-chain), command-and-control (mitre-attack)","cert.gov.ua, SEKOIA",[domain-name:value = 'meteolink.host'],,
white,indicator,7d20fa01a703afa8907e50417d27b0a4,,2022-05-04T05:57:16.111173Z,2022-05-04T05:57:16.111181Z,2022-03-23T00:00:00Z,2027-03-22T00:00:00Z,100,"installation (lockheed-martin-cyber-kill-chain), actions-on-objectives (lockheed-martin-cyber-kill-chain), execution (mitre-attack)","cert.gov.ua, SEKOIA",[file:hashes.MD5 = '7d20fa01a703afa8907e50417d27b0a4'],,
white,indicator,b4f0ca61ab0c55a542f32bd4e66a7dc2,,2022-05-04T05:57:16.11119Z,2022-05-04T05:57:16.111199Z,2022-03-23T00:00:00Z,2027-03-22T00:00:00Z,100,"installation (lockheed-martin-cyber-kill-chain), actions-on-objectives (lockheed-martin-cyber-kill-chain), execution (mitre-attack)","cert.gov.ua, SEKOIA",[file:hashes.MD5 = 'b4f0ca61ab0c55a542f32bd4e66a7dc2'],,
white,indicator,36dc2a5bab2665c88ce407d270954d04,,2022-05-04T05:57:16.111207Z,2022-05-04T05:57:16.111215Z,2022-03-23T00:00:00Z,2027-03-22T00:00:00Z,100,"installation (lockheed-martin-cyber-kill-chain), actions-on-objectives (lockheed-martin-cyber-kill-chain), execution (mitre-attack)","cert.gov.ua, SEKOIA",[file:hashes.MD5 = '36dc2a5bab2665c88ce407d270954d04'],,
white,indicator,989c5de8ce5ca07cc2903098031c7134,,2022-05-04T05:57:16.111223Z,2022-05-04T05:57:16.111232Z,2022-03-23T00:00:00Z,2027-03-22T00:00:00Z,100,"installation (lockheed-martin-cyber-kill-chain), actions-on-objectives (lockheed-martin-cyber-kill-chain), execution (mitre-attack)","cert.gov.ua, SEKOIA",[file:hashes.MD5 = '989c5de8ce5ca07cc2903098031c7134'],,
white,indicator,1aba36f72685c12e60fb0922b606417c,,2022-05-04T05:57:16.111278Z,2022-05-04T05:57:16.111287Z,2022-03-23T00:00:00Z,2027-03-22T00:00:00Z,100,"installation (lockheed-martin-cyber-kill-chain), actions-on-objectives (lockheed-martin-cyber-kill-chain), execution (mitre-attack)","cert.gov.ua, SEKOIA",[file:hashes.MD5 = '1aba36f72685c12e60fb0922b606417c'],,
white,indicator,c0962437a293b1e1c2702b98d935e929456ab841193da8b257bd4ab891bf9f69,,2022-05-04T05:57:16.111295Z,2022-05-04T05:57:16.111303Z,2022-03-23T00:00:00Z,2027-03-22T00:00:00Z,100,"installation (lockheed-martin-cyber-kill-chain), actions-on-objectives (lockheed-martin-cyber-kill-chain), execution (mitre-attack)","cert.gov.ua, SEKOIA",[file:hashes.'SHA-256' = 'c0962437a293b1e1c2702b98d935e929456ab841193da8b257bd4ab891bf9f69'],,
white,indicator,4fb630f9c5422271bdd4deb94a1e74f4,,2022-05-04T05:57:16.111312Z,2022-05-04T05:57:16.11132Z,2022-03-23T00:00:00Z,2027-03-22T00:00:00Z,100,"installation (lockheed-martin-cyber-kill-chain), actions-on-objectives (lockheed-martin-cyber-kill-chain), execution (mitre-attack)","cert.gov.ua, SEKOIA",[file:hashes.MD5 = '4fb630f9c5422271bdd4deb94a1e74f4'],,
white,indicator,3293ba0e2eaefbe5a7c3d26d0752326e,,2022-05-04T05:57:16.111329Z,2022-05-04T05:57:16.111337Z,2022-03-23T00:00:00Z,2027-03-22T00:00:00Z,100,"installation (lockheed-martin-cyber-kill-chain), actions-on-objectives (lockheed-martin-cyber-kill-chain), execution (mitre-attack)","cert.gov.ua, SEKOIA",[file:hashes.MD5 = '3293ba0e2eaefbe5a7c3d26d0752326e'],,
white,indicator,9c22548f843221cc35de96d475148ecf,,2022-05-04T05:57:16.111345Z,2022-05-04T05:57:16.111354Z,2022-03-23T00:00:00Z,2027-03-22T00:00:00Z,100,"installation (lockheed-martin-cyber-kill-chain), actions-on-objectives (lockheed-martin-cyber-kill-chain), execution (mitre-attack)","cert.gov.ua, SEKOIA",[file:hashes.MD5 = '9c22548f843221cc35de96d475148ecf'],,
white,indicator,a2ffd62a500abbd157e46f4caeb91217738297709362ca2c23b0c2d117c7df38,,2022-05-04T05:57:16.111362Z,2022-05-04T05:57:16.111371Z,2022-03-23T00:00:00Z,2027-03-22T00:00:00Z,100,"installation (lockheed-martin-cyber-kill-chain), actions-on-objectives (lockheed-martin-cyber-kill-chain), execution (mitre-attack)","cert.gov.ua, SEKOIA",[file:hashes.'SHA-256' = 'a2ffd62a500abbd157e46f4caeb91217738297709362ca2c23b0c2d117c7df38'],,
white,indicator,830c6ead1d972f0f41362f89a50f41d869e8c22ea95804003d2811c3a09c3160,,2022-05-04T05:57:16.111379Z,2022-05-04T05:57:16.111387Z,2022-03-23T00:00:00Z,2027-03-22T00:00:00Z,100,"installation (lockheed-martin-cyber-kill-chain), actions-on-objectives (lockheed-martin-cyber-kill-chain), execution (mitre-attack)","cert.gov.ua, SEKOIA",[file:hashes.'SHA-256' = '830c6ead1d972f0f41362f89a50f41d869e8c22ea95804003d2811c3a09c3160'],,
